<?xml version="1.0"?>
<svg xmlns="http://www.w3.org/2000/svg" xmlns:xlink="http://www.w3.org/1999/xlink" version="1.1" id="Layer_1" x="0px" y="0px" viewBox="0 0 512 512" style="enable-background:new 0 0 512 512;" xml:space="preserve" width="512px" height="512px" class=""><g><g>
	<g>
		<path d="M511.762,187.659L475.426,40.547c-1.056-4.288-5.336-6.92-9.688-5.848L415.13,47.203    c-2.056,0.512-3.824,1.816-4.928,3.632c-1.088,1.816-1.416,4-0.912,6.056l36.344,147.112c0.904,3.64,4.168,6.08,7.76,6.08    c0.64,0,1.28-0.072,1.928-0.24l50.6-12.504C510.21,196.283,512.826,191.947,511.762,187.659z M459.25,192.395L426.746,60.819    l35.072-8.664l32.496,131.576L459.25,192.395z" data-original="#000000" class="active-path" data-old_color="#df2487" fill="#df2487"/>
	</g>
</g><g>
	<g>
		<path d="M458.546,189.579L427.434,63.627c-0.504-2.056-1.808-3.832-3.632-4.928c-1.824-1.104-4-1.432-6.056-0.92L253.85,98.267    c-2.056,0.512-3.832,1.816-4.928,3.632c-1.096,1.816-1.424,4-0.92,6.056l31.112,125.952c0.904,3.64,4.168,6.08,7.76,6.08    c0.64,0,1.288-0.072,1.936-0.24l163.896-40.488C456.994,198.203,459.61,193.867,458.546,189.579z M292.738,222.307l-27.28-110.424    l148.368-36.648l27.272,110.424L292.738,222.307z" data-original="#000000" class="active-path" data-old_color="#df2487" fill="#df2487"/>
	</g>
</g><g>
	<g>
		<path d="M294.65,230.075l-31.112-125.952c-0.512-2.056-1.816-3.832-3.632-4.928c-1.824-1.104-4.008-1.424-6.056-0.92    l-27.288,6.744c-4.288,1.056-6.904,5.392-5.848,9.68l31.112,125.952c0.512,2.056,1.816,3.832,3.632,4.928    c1.264,0.76,2.688,1.152,4.136,1.152c0.64,0,1.288-0.08,1.92-0.232l27.296-6.744C293.098,238.699,295.714,234.363,294.65,230.075z     M265.45,229.051l-27.28-110.424l11.752-2.904l27.28,110.424L265.45,229.051z" data-original="#000000" class="active-path" data-old_color="#df2487" fill="#df2487"/>
	</g>
</g><g>
	<g>
		<path d="M264.002,223.203l-24.4-98.728c-1.048-4.288-5.392-6.896-9.68-5.848l-88.68,21.904c-2.056,0.512-3.832,1.816-4.928,3.632    c-1.096,1.816-1.432,4-0.92,6.056l24.384,98.728c0.512,2.056,1.816,3.832,3.632,4.928c1.264,0.76,2.688,1.152,4.136,1.152    c0.648,0,1.288-0.08,1.92-0.248l18.248-4.504l-3.832-15.528l-10.48,2.592l-20.552-83.2l73.152-18.064l20.552,83.2l-10.488,2.592    l3.832,15.528l18.256-4.504c2.056-0.512,3.832-1.816,4.928-3.632S264.514,225.259,264.002,223.203z" data-original="#000000" class="active-path" data-old_color="#df2487" fill="#df2487"/>
	</g>
</g><g>
	<g>
		<path d="M175.306,245.107l-24.384-98.728c-1.048-4.288-5.392-6.896-9.68-5.848l-25.24,6.232c-2.056,0.512-3.832,1.816-4.928,3.632    c-1.096,1.816-1.424,4-0.92,6.056l24.384,98.728c0.904,3.648,4.168,6.088,7.76,6.088c0.64,0,1.28-0.08,1.92-0.232l25.24-6.24    c2.056-0.512,3.832-1.816,4.928-3.632C175.482,249.347,175.81,247.163,175.306,245.107z M148.154,243.579l-20.552-83.2l9.712-2.4    l20.552,83.2L148.154,243.579z" data-original="#000000" class="active-path" data-old_color="#df2487" fill="#df2487"/>
	</g>
</g><g>
	<g>
		<path d="M144.698,229.635l-13.664-55.312c-1.056-4.288-5.392-6.912-9.68-5.848l-88.68,21.904    c-2.056,0.512-3.832,1.816-4.928,3.632s-1.432,4-0.92,6.056l13.664,55.312c0.904,3.64,4.168,6.08,7.76,6.08    c0.64,0,1.28-0.08,1.928-0.232l88.672-21.904c2.056-0.512,3.832-1.816,4.928-3.632    C144.874,233.875,145.21,231.691,144.698,229.635z M54.114,243.779l-9.832-39.784l73.152-18.072l9.832,39.784L54.114,243.779z" data-original="#000000" class="active-path" data-old_color="#df2487" fill="#df2487"/>
	</g>
</g><g>
	<g>
		<path d="M57.37,257.011l-16.368-66.264c-1.056-4.296-5.392-6.912-9.68-5.848l-25.24,6.232c-2.056,0.512-3.832,1.816-4.928,3.632    c-1.096,1.816-1.432,4-0.92,6.056l16.368,66.272c0.904,3.64,4.168,6.08,7.76,6.08c0.64,0,1.28-0.08,1.92-0.248l25.24-6.232    c2.056-0.504,3.832-1.808,4.928-3.632C57.546,261.251,57.882,259.067,57.37,257.011z M30.218,255.491L17.69,204.755l9.712-2.4    l12.528,50.736L30.218,255.491z" data-original="#000000" class="active-path" data-old_color="#df2487" fill="#df2487"/>
	</g>
</g><g>
	<g>
		<path d="M211.282,198.611c-19.296,0-35,15.696-35,35c0,19.304,15.696,35.008,35,35.008c19.304,0,35.008-15.704,35.008-35.008    C246.29,214.315,230.586,198.611,211.282,198.611z M211.282,252.611c-10.48,0-19-8.528-19-19.008c0-10.48,8.52-19,19-19    c10.48,0,19.008,8.52,19.008,19C230.29,244.083,221.762,252.611,211.282,252.611z" data-original="#000000" class="active-path" data-old_color="#df2487" fill="#df2487"/>
	</g>
</g><g>
	<g>
		<path d="M319.402,464.995l-89.904-211.568c-4.808,4.424-11.168,7.184-18.216,7.184c-7.048,0-13.408-2.768-18.216-7.184    l-89.904,211.568c-1.952,4.576,0.184,9.872,4.776,11.816c4.536,1.952,9.872-0.184,11.816-4.776l82.512-194.16v175.408    c0,4.984,4.032,9.016,9.016,9.016s9.016-4.032,9.016-9.016v-175.4l82.512,194.16c1.448,3.432,4.792,5.496,8.296,5.496    c1.176,0,2.376-0.232,3.52-0.72C319.218,474.867,321.354,469.571,319.402,464.995z" data-original="#000000" class="active-path" data-old_color="#df2487" fill="#df2487"/>
	</g>
</g></g> </svg>
